
@startuml

actor Client #green
actor PHI
actor PhiHTMLElement
actor PhiComponentFactory
collections Components
actor PhiComponent

Client -> PHI:
note over PHI: passes Component Classes\n as a comma separated list

PHI -> PhiComponentFactory
note over PhiComponentFactory: define elements\n in DOM as custom\n elements

PhiComponentFactory -> Components
note over Components:  ComponentFactory has a\n collection of components

PhiComponentFactory -> PhiComponent
note over PhiComponent: Object created for \neach component

PhiComponent -> Components : created object \nsaved in the \nComponents collection\nof PhiComponentFactory


@newpage

Client -> PhiHTMLElement
note over Client: Creates a \ncomponent extending\nPhiHTMLElement Class

PhiHTMLElement -> PhiComponentFactory
note over PhiHTMLElement: Event fired of component creation
note over PhiComponentFactory: Handles event and \ncreate object of PhiComponent

PhiComponentFactory  -> PhiComponent
note over PhiComponent: Object created for \neach component

PhiComponent -> Components : created object \nsaved in the \nComponents collection\nof PhiComponentFactory



@enduml
